Object_1_pT,Object_2_pT,Object_3_pT,Object_1_phi,Object_2_phi,Object_3_phi,Object_1_eta,Object_2_eta,Object_3_eta,Object_1_bTagWP,Object_2_bTagWP,Object_3_bTagWP,Object_1_2_dR,Object_2_3_dR,Object_1_3_dR,eventNumber,Label,Weight,Sample_Name,Sample_Type,isNominal
2.0931831125282137,8.342561876769425,201.14380141081955,0.4100505941122332,0.3760670182082051,-0.45065591087878154,-0.33386106835799545,0.795179265179086,-1.2083282977176206,1,1,5,1.129551662468233,2.167374761332813,1.2269916963687029,76002,1.0,2.997259154661945,Sample_A,Signal,True
2.331838770222379,90.5593935329678,118.30941868315912,2.5606761176880983,1.7586733602667266,2.5225975062546038,1.7617127685542138,0.3934381543743978,1.0048681529636347,1,2,3,1.5859961673094949,0.9784818567547084,0.7578019218748091,271196,,1.0,Data,Data,True
11.137695551511543,29.572655487275416,154.63958800469828,1.4358555883708268,1.581085796658928,-0.5683817200996919,-2.190284098821291,-1.2121272021421508,0.7667820198250243,1,2,2,0.9888795315509221,2.9216933984227706,3.5722831940806614,235994,,1.0,Data,Data,True
52.186148244905624,33.714378879116,65.85969762465265,2.106907297682138,-1.5715955620489686,-0.4090895516077344,0.679880261581262,-0.15480125568175845,-1.8948183079733358,2,1,3,3.772012264602334,2.092625042041088,3.599904563971531,222996,,1.0,Data,Data,True
2.7732058254528056,32.74483012506219,21.246076887488492,1.471095564770101,-3.0068199249859577,-2.6280109647637406,1.349621934420025,-0.6748421968209918,-0.3652917704751394,1,2,4,4.91428348308059,0.48920107808092195,4.443377471665471,17270,1.0,0.5012117833201688,Sample_A,Signal,True
3.5769696675132856,25.85603041610539,201.73786061160612,2.163706173741171,0.8864550405754263,0.6529785290970862,0.619596686510533,0.4729269394757624,-2.1873026771179487,3,1,4,1.2856447689266357,2.6704555593408434,3.1876295352236026,186589,,1.0,Data,Data,True
6.1662846209301465,4.854263600500085,206.67989108594415,0.7788036156114249,-0.7870167120212974,2.232361154028518,-0.34491984593948416,-1.5996945414154726,-1.2083569873697448,2,4,4,2.006552474976597,3.0446326180999295,1.6906665001384569,143285,,1.0,Data,Data,True
8.094128207607733,20.947296728015754,80.92382302033089,2.7193294110818753,-0.6236530792654498,-2.823651499756509,0.271792112252407,1.1777588705926716,-0.6321402778260361,1,1,5,3.4635686362459124,2.848811678158091,5.616202555441857,118799,,1.0,Data,Data,True
6.662589918311141,22.22607200119956,17.151467881195295,-0.43174466282771995,1.6404988376920793,-0.09979281894241776,-1.3128779802944783,1.1083825402506842,0.015247249724481498,1,1,5,3.186957112010951,2.055130120830661,1.3689808812659756,46119,,1.0,Data,Data,True
14.354094459544497,94.07705612458504,166.2531067239549,2.8076907448865267,1.483424616728791,-2.496254860777304,2.8203455156460393,-0.43714209916237884,-2.2439384343514623,2,2,3,3.516376876675212,4.370624868429672,7.333403774104012,273070,,1.0,Data,Data,True
0.5889738675450036,58.86809261878971,22.917653801567646,-3.110838659440539,-1.4712558361190355,0.10644528590162983,0.6743350903095228,-0.5148343506033598,0.24723246205883875,3,1,5,2.025427311391838,1.7521092024718061,3.2455096117582385,57518,1.0,2.135397636237411,Sample_A,Signal,True
17.53301541754818,13.014255902534476,24.276739710830114,-0.27437649144838394,-2.5543898062052914,1.9683866496607587,0.2972648831485739,0.2370999165371368,0.07325767882858125,1,1,4,2.2808069928593557,4.52574315981294,2.253922300059389,45670,1.0,-0.1089156713387549,Sample_A,Signal,True
10.003791658512787,57.79014369707317,17.854402472737387,1.354994233839867,-1.8203296321025475,-0.16859015873876126,3.2417766238254284,1.031104352382485,-1.1340269238835008,3,2,4,3.869076575276093,2.72324011635648,4.6334615666315,251867,,1.0,Data,Data,True
1.7808164924346872,5.519795152449456,39.37387643135784,0.2884295296334818,-0.8055306696779372,1.117915451755903,0.6088365436989572,0.23040937892521207,0.8350698934365122,1,1,3,1.1575647008768775,2.016248823897475,0.8597839400295624,32652,1.0,2.865288478021326,Sample_A,Signal,True
3.048869128061422,13.257478331027512,20.93916816893455,-1.3144913588477571,3.018445062821402,-0.9925906702541405,-0.5196865782925348,0.09815723194963462,2.3082029006718265,4,2,4,4.376764673601004,4.579597090339561,2.8461516049842412,64607,0.0,-0.9516162078853796,Sample_B,Background,True
11.185628247951371,11.986388255856108,26.21669153941531,0.3126321066652462,-2.1701949845567876,-2.5372550362154396,0.4868259096129963,-0.01620697028276106,-0.6622128401915427,1,2,5,2.533273069205585,0.7430051584479437,3.0728076372771884,18410,1.0,0.905982498793332,Sample_A,Signal,True
9.649812051422872,11.521795944125222,64.75398136764784,-1.1782561379441985,2.3475379257626736,-0.9097669755778641,-1.7216407994623981,-0.005044300847868258,1.8634319344352432,1,2,4,3.921470045623998,3.7551616026630383,3.5951123678745405,171526,,1.0,Data,Data,True
1.378145301457835,13.499765116427746,14.763061729195933,-2.9755326774972874,1.7251629666402675,-3.1000640997934066,0.7465921296632926,-0.1690220645035428,-0.9018538720167161,1,1,4,4.789038409887059,4.880559261062931,1.6531431564126264,56225,1.0,1.6712704305466397,Sample_A,Signal,True
1.8618067466507557,20.610238735587227,7.040110293036167,0.28328563859689027,-2.17813070973801,1.6407211419116958,-0.22812917755390805,-0.0081793514420582,0.24801545511676282,1,2,5,2.471224062252743,3.827435857562619,1.4385217610034988,229288,,1.0,Data,Data,True
14.934212621263544,45.14545246329302,50.34709626160861,-0.9756413932917805,0.20773065426747106,-2.8169630940076575,-0.4755342334000096,-2.5229218451748965,0.804353853973213,2,1,4,2.364775980044167,4.496613820309254,2.242449357672787,39169,1.0,1.7544910991720422,Sample_A,Signal,True
18.436226450639683,55.244679380335704,87.40989645643432,1.0571302859651128,-2.143036786323038,3.0428453475008572,0.20848167117717212,0.5777085154003807,0.09294988596933071,3,1,5,3.2213968636373176,5.208489650054203,1.9890731256047918,82647,0.0,1.123295749557736,Sample_B,Background,True
3.9479843334733724,11.635127671597177,51.340324276702034,-1.7669221490793676,2.7240210214961476,1.2854960884354067,0.3763977165633349,-0.5812356040566427,-0.07531625367910189,2,2,4,4.591909421809244,1.5248961840478983,3.085660805666265,214108,,1.0,Data,Data,True
26.53691396583612,3.9197101547010402,21.094432644664437,2.5215586813083135,0.15978513715417808,0.9980356649868556,1.1392973624941733,-0.31245997868430886,-0.30220436663894257,2,2,4,2.7722867188535893,0.8383132618479726,2.097391145293361,22070,0.0,5.406133914360704,Sample_B,Background,True
2.952094421602452,50.45023655063277,19.209932132621393,-1.193076393440848,-1.8145508365715244,-2.30182159672762,0.8443847099102596,1.021933041549015,1.984473431851256,2,1,4,0.6463388380194167,1.0788497562989434,1.5903201626428813,45377,,1.0,Data,Data,True
8.542944486838126,15.062238923084443,28.459748440527548,-1.3044815376069474,-2.87512843649427,-1.2763427978093933,-1.2265662113517508,0.4689775881735372,-1.7102025058321768,4,2,5,2.3112335358187006,2.702765509728094,0.4844541815447069,22004,0.0,0.5128972924985473,Sample_C,Background,True
14.690718456178809,35.446340125916485,39.8901704576449,3.1040681889829482,-0.48145895936166916,0.6791267841576918,-0.2762848298001506,0.4923611624304648,0.7852359340847024,1,1,4,3.666990808945186,1.1969690471904064,2.6471054283867446,45911,,1.0,Data,Data,True
9.08724360747942,37.20115916255489,47.987132715948704,-2.3756973725758117,-1.5452343700825022,-1.8709916743378043,-0.2162750348037359,-0.634074390666777,1.008277415440772,1,1,5,0.9296370798702979,1.674346820793234,1.324483501306733,13681,0.0,-0.9201948905113146,Sample_B,Background,True
1.9920500695823566,19.931004484492718,38.35224508879998,-1.3866488596374331,1.1349138036162207,-3.0172330487568977,-0.002908821968133852,1.0556764092073512,-0.49792301887269597,1,1,5,2.7347542771477142,4.433282606218855,1.7040668569464785,10772,,1.0,Data,Data,True
7.699647395055454,55.58978375734557,85.12667867121719,0.6261991364776041,2.922139764461636,-2.826614332708174,0.4652246939852802,-0.6886751754229192,0.3048680490720026,1,2,3,2.569596909215134,5.833978214620487,3.4565351302364298,34957,0.0,3.5245921096715307,Sample_C,Background,True
27.63200462283968,32.415162651270705,53.326126551868974,1.4247261293794367,0.9686924912534982,-1.2597305002871861,-0.1909375657386412,-0.19887560926360778,-0.10111445982709646,1,1,3,0.45610272048890876,2.2305663566830467,2.6859589697008923,92720,,1.0,Data,Data,True
3.0296176877394716,11.693989271337985,140.7858865129466,-1.1792301824357294,2.7133154545500693,1.675064949440623,-2.301293773816683,2.494709403862038,1.1342049267686904,1,3,3,6.176856645278532,1.7114136097247394,4.466503332762311,30671,0.0,1.3427043033242434,Sample_C,Background,True
10.911217497613206,4.146075036777639,53.084097509725545,-2.4219714631739584,-1.1535876821075224,1.89695153818416,0.18908996808861908,-1.0270094740368694,-1.1083368809071157,1,1,5,1.7571839030705674,3.0516231224785972,4.50959114778216,39552,0.0,0.0244885187246317,Sample_B,Background,True
18.932080225127322,21.745279021495055,495.7560786378578,-1.9604060478568701,-0.08191652116264381,2.2257169591421917,-0.26440330632952747,0.10353890872890079,-0.8716183854154342,1,1,4,1.91418504213203,2.505215365541795,4.229933330679832,15142,,1.0,Data,Data,True
26.92134968551182,8.556587076693862,67.99106718039098,2.0914792386657277,3.1350708543547423,-2.678696504834712,0.02423338639386152,0.7871729287721763,-0.2993062583251742,1,3,5,1.2927336174405153,5.914416956114309,4.781135275808968,101456,,1.0,Data,Data,True
32.474188801064074,58.30852276829765,48.63925093552757,-0.7047853182142387,-1.9991907085438694,1.3398500607493231,-0.22009731706803287,-0.5096198929040772,0.32718853711574675,2,2,4,1.3263893230997985,3.442301789145501,2.1166141923126043,64618,0.0,2.2339926846094587,Sample_C,Background,True
4.5650026597777185,10.158145271834757,28.465509750765296,0.20543023018646167,-2.883399210418785,0.27508449239517496,0.5784897568843256,-0.8316192604176784,-0.5509017881535417,1,1,5,3.395478575079829,3.170933868779945,1.1315374400552822,18262,1.0,1.4392021236705506,Sample_A,Signal,True
26.709091825761508,27.525626093125457,94.62755912670362,1.4164450917075957,-0.6109909503133881,1.0792695248724051,0.06856361981247566,-0.45958438377905336,-1.9130760049963145,2,1,5,2.0950983791181335,2.2292640864025253,2.0101201370771236,2101,0.0,3.8965803139126596,Sample_B,Background,True
8.21584091397635,15.573208030726386,45.69788497348997,2.8069461515247696,2.3392223316697542,-0.7325516552282547,-0.26975109471373904,1.1897909212260078,-0.373294320450585,2,1,5,1.5326540601039842,3.4465970027449484,3.5410119914518026,75645,,1.0,Data,Data,True
1.345824844768353,72.24473125516566,35.648612639963936,2.5779698977064207,0.24896051810040642,0.5003323865025884,-1.6307689579092854,1.4866991076279226,0.3361731715403507,2,1,4,3.8913868774431943,1.177666228535992,2.8610206165921146,147264,,1.0,Data,Data,True
14.638648280256485,34.41574358245826,102.39086443900096,-2.0453853510015447,-1.456111201937872,-1.0780444427658633,-1.2557919927086376,-0.8431674200139052,0.36217824463725923,1,1,5,0.7193768558594488,1.2632468664850045,1.88509313342428,65707,,1.0,Data,Data,True
6.185598838826147,15.489690501654271,11.108272180086287,2.55927242604021,-2.8736297477768877,2.4358385091408854,-2.8859908574927022,0.46876576791543456,1.5275459908850963,2,1,5,6.385203054405266,5.414006717004435,4.4152625566131105,100402,,1.0,Data,Data,True
6.852855386916392,18.382695057091272,17.396487802866183,1.8222956132844805,2.0253066041634575,2.4871258204221673,0.5588946753700017,-0.8484265579010891,2.201867879102814,2,1,5,1.4218883627181595,3.085056424268893,1.77238826234739,117588,,1.0,Data,Data,True
41.416796251982085,15.470130719793637,63.88971221079662,-1.7778304112788332,2.340993587347776,-0.9044615356021195,0.09215900220267047,0.3351622800330802,-2.134718779180178,4,2,3,4.125986151782239,4.078393237752109,2.392019616603803,82970,0.0,2.4527795557472976,Sample_C,Background,True
1.9847556676528397,3.662079766889971,44.682900713938686,1.5343846511381445,-0.9438119201944706,-1.223796715610421,-0.5932505368698113,0.3063665664404726,-0.46608172304973844,2,1,3,2.636431144318606,0.821625124737836,2.7611114354707578,82572,1.0,0.28065883526023927,Sample_A,Signal,True
8.288492167989128,4.690358245832726,40.05687667018105,0.0700779200682744,1.649033928275391,-0.12283166091278197,0.12315261812962329,-0.3065641288849438,1.6807028796483316,2,1,4,1.6363858220230745,2.6624683715218,1.5694511536174942,178802,,1.0,Data,Data,True
9.905588295516827,65.44241603794109,59.67974905657048,-2.0304884610440186,-0.9280340896717343,-2.5303295002677015,0.053728561067884054,-0.7518718670782198,-0.774963839640975,3,2,3,1.3654294894966361,1.6024618004850346,0.9677665831618819,54469,0.0,-0.9318579731794002,Sample_C,Background,True
21.521858101919907,49.00792147794995,209.72860493898645,-1.9320199606567856,2.727679979142316,1.8637053353852284,2.588393238746545,1.215860720533591,-0.43429644309016713,2,4,4,4.85763821651178,1.862651564226115,4.852234890820451,247126,,1.0,Data,Data,True
4.831762807783924,19.75536444992772,152.28426131388113,-0.18780136672703795,-1.5472904093515916,0.46346894477851164,0.27170091771440463,-0.5372907654322737,1.85676079800995,2,2,5,1.5819854615061169,3.126441438543486,1.7136416903107443,192096,,1.0,Data,Data,True
6.335086940870613,38.86594447709211,16.68137864539471,-0.19458523513227455,-0.9915657671008407,1.174091244368336,-1.0238881333015672,0.3706049762421743,0.2534609927639463,1,1,4,1.6061721579276216,2.16882295362963,1.8721367726206641,79512,,1.0,Data,Data,True
29.62597824702529,11.479499941434995,99.27765853904934,1.93977043147515,-1.945372588224805,0.9056433290626584,-0.39653606057582863,0.28761798104215314,0.26203300855550654,1,1,2,3.944921169831598,2.8511307145488116,1.2260228720381072,39536,,1.0,Data,Data,True
13.361440848134134,52.796215282459045,25.486359558618688,-1.2585116974783785,0.05637371052787277,0.14263835928326118,-1.7969905607905141,1.5101276266627668,-2.011585803380131,1,1,4,3.5589260096231334,3.522769801302578,1.4174881303577969,80548,,1.0,Data,Data,True
7.741541719938986,23.771985796045286,16.233337277952305,-0.10602715081515424,-0.6651530471077294,-0.7869562038827778,-0.8599232177692265,-0.9330399591313727,-0.6309410848767347,1,1,4,0.5638863589167541,0.3257295485925196,0.7183990482284656,25323,1.0,2.098639492378768,Sample_A,Signal,True
5.903346237393232,49.475039370019395,9.410195044005839,2.848414797041806,-1.7498774209545822,-1.3121606922232358,-0.13918669556677432,-0.5480688931014522,1.35088526386929,1,1,4,4.616435418539604,1.9487490410229158,4.41935547859308,9728,,1.0,Data,Data,True
16.902868250979218,38.80769007354797,67.12926915703318,0.04435183409631893,0.3704287499569485,-2.915330331579291,-0.08858333070375245,-0.23006555432251158,0.851068019200643,1,2,4,0.3554481321617666,3.4590551521617607,3.1052637860889405,71409,0.0,-0.031768289577522986,Sample_B,Background,True
16.629852227055583,45.418206923847634,135.56957333750282,2.230089195129234,0.31965419880993684,-1.6726144971430372,-0.7292679718285779,-2.398580195549263,-2.982353272042088,2,1,5,2.536999246240489,2.0760360212944433,4.506383192729378,129789,,1.0,Data,Data,True
2.892706908763029,7.3277913887933765,67.57261998215913,1.7559733364728638,-0.15083894728526426,-0.5167986575644532,-0.8097617106504997,2.553233630360356,-1.6364226294975248,1,1,2,3.865963107577672,4.205608884015958,2.41844181481163,180157,,1.0,Data,Data,True
6.568271719280806,13.294423008315661,98.57410668049141,2.6787530384696616,1.6384227112495466,2.587269654816839,1.5298410208059618,1.0738368950126227,1.1346415776498047,1,3,5,1.1358815750219997,0.9507932118750118,0.40564986053924174,54778,0.0,0.17031110936817803,Sample_B,Background,True
20.02928929657912,18.83070318051903,22.026266413457964,2.091097897426299,-2.9850267090804814,2.930722672494449,0.5211338705036878,0.8079730272749179,-0.13365979117233268,1,3,4,5.084222430484416,5.990222292234328,1.064764998616752,129329,,1.0,Data,Data,True
30.432766162536385,48.45284794743993,414.8860599715473,2.515145539255488,1.0896189937095722,1.5297455994253006,1.184206425957928,-0.7667323621889652,1.6743512030136818,2,1,2,2.4162549714697206,2.4804435896349903,1.1005702812144127,284006,,1.0,Data,Data,True
10.285765692307494,18.92723190629437,50.84268181858321,2.8837730355894164,0.44012997047635816,-2.075863223628962,0.9225399348923711,3.1558037304381785,-0.6834122883075854,2,1,4,3.3104166822578103,4.590185333009808,5.213163566104036,278239,,1.0,Data,Data,True
6.48702484572915,49.98330836832556,582.2427414452163,0.07595307954718278,-1.4631017596962514,-2.0768043427555476,2.346173649296328,-0.9893193664529332,1.2720366778886203,2,2,3,3.673445719799155,2.3431521546271235,2.405854266705367,250494,,1.0,Data,Data,True
9.78439733368149,96.90919509900395,458.528158230685,0.2562685346323965,2.6385730807287446,-0.9850591384481109,1.5328760596153646,1.7584857931012494,0.473295710756634,1,2,3,2.392963581460215,3.8447918028956445,1.6320554241946124,71233,0.0,-0.10583432903795142,Sample_C,Background,True
2.7427455298121144,44.46383374894414,20.254933344896294,1.225204378980731,3.1144340500166026,1.6408989499310227,0.21440419402468647,-0.1314924421662925,-1.6495001627039427,2,1,4,1.9206335498607072,2.1155739483166576,1.9096966846464156,37431,1.0,0.5488849635015323,Sample_A,Signal,True
2.6340846011398873,23.170919994166027,79.07431497750966,-2.7804124149831626,-0.6566533950956943,-1.6775845991587852,-0.69622752562718,2.6457854221407144,1.9025310835150946,2,1,5,3.9597225808889225,1.2628252196228582,2.8230790814192677,134854,,1.0,Data,Data,True
10.903228652962742,55.823857733189726,50.58426586066415,-0.216692858005747,1.2668449510605422,1.8836765461827092,0.5531549463227978,1.6208828989424968,-0.3685235340629285,2,1,4,1.827820399200824,2.082839209450486,2.293696330218347,131266,,1.0,Data,Data,True
5.2668756512982515,60.850111456354405,22.02004321857722,-2.3548242674740374,0.5779562589179412,2.4188543303989976,0.30171299035202626,-1.4555827941721597,-2.8371482226164724,1,3,3,3.4189603815034895,2.3016578248417354,5.713182744326418,116544,,1.0,Data,Data,True
33.4331397585826,18.51852462927432,29.379229398706094,2.8181667974802043,0.19054057494584242,1.129386111871451,0.8888002842348177,0.7069538256375678,-0.1589182777001745,1,2,4,2.6339111032558713,1.2771708740586203,1.987383805184167,80137,0.0,0.39567567022006744,Sample_B,Background,True
18.214902207356335,24.47880035104828,145.84664198883664,-2.6757806763753083,-0.17512758435857823,1.101188278378915,-1.8745466306213237,-0.9590722432683817,1.9348412503533536,3,1,5,2.6629606156516994,3.1628653923367196,5.364413342845046,191063,,1.0,Data,Data,True
50.04362797689312,21.896407304704194,49.90028993492265,2.874438823300923,-0.7899177582644343,0.9058760111835351,-0.39011012615843244,0.3190866035913778,0.295791854743839,1,5,2,3.732354372021657,1.695953759340868,2.084634517764967,33962,0.0,-0.026016069764353573,Sample_C,Background,True
24.838396295305447,5.506179174825655,131.60344259091065,-2.9583591251127377,0.22240975807883778,0.556416548428242,-0.3089670473542367,-0.8669059352388675,-0.06932099148934684,1,1,4,3.229332205099643,0.8646977960509884,3.52293602942305,95975,0.0,2.684303437928577,Sample_B,Background,True
0.4439129015280294,2.324396275040013,11.085988755082695,-1.0262491450771996,1.761381869369595,-0.7378770363854645,-0.8365957698416339,1.6771596991434523,-0.19244985329623526,2,1,4,3.753645325621228,3.121175252460154,0.7057495553476669,86587,0.0,-0.06300473807276144,Sample_B,Background,True
1.6491233069622233,21.508360822788212,353.9688719837684,-1.758771516152315,0.677207341447807,-1.958838414281349,-0.6267113460587816,1.2959856209358174,-0.22491210920289006,3,2,2,3.1033460363879866,3.043331584273848,0.44885341757075903,92604,0.0,1.851547954838777,Sample_C,Background,True
3.7579188395608094,35.578234198950256,135.69515933188035,-1.9466700283386678,1.2082461389816963,-1.5027257401827048,1.0158479891546353,1.9058356753245218,0.6738120559653473,2,4,2,3.278044249907777,2.9777929290464513,0.5604240453254765,226057,,1.0,Data,Data,True
2.260441394618504,171.2085062141195,34.449072376723,-0.28851317139270494,-0.8252299453283016,-1.5211440266438825,-0.22598548594033863,-1.3995259186814815,0.8533568020923615,3,1,4,1.2904503255461264,2.357917929473938,1.6384012329258404,185100,,1.0,Data,Data,True
6.842328550134106,31.951849746344834,22.534017926492023,0.919967681141225,-1.6263068824981255,-3.0853836762414883,-1.629020604279037,-0.17520261133319687,2.210967346785024,1,1,4,2.932081327325325,2.796911181833689,5.548724804890283,133473,,1.0,Data,Data,True
18.835339876744545,24.77757008488913,70.26899809879804,2.045682474825375,2.7248995195169723,-2.654023120721497,1.3447819524499636,-0.42423099053901603,0.9172039238079581,1,1,4,1.8949254830367652,5.543668135729182,4.719115982405175,49782,0.0,-0.7045585682637823,Sample_B,Background,True
9.526736224688584,29.169807800818802,165.03100587618596,2.175145510403647,0.891356939787566,2.194442562868937,-0.2722732496179454,0.49992470293519325,1.0532482878153282,2,1,3,1.4981330955465004,1.4156974008120409,1.325661994036684,77296,0.0,-0.15448740441458142,Sample_B,Background,True
10.263022604880092,26.406992000505383,27.358324511185003,1.1119489112945766,1.1350127623503177,1.27491421696568,-0.5671539681920152,-0.5585440826689636,-0.2845599292350681,1,1,3,0.024618516491483836,0.30763571531339245,0.32621631122075534,40150,,1.0,Data,Data,True
3.2578973990223288,18.574524159115406,93.71439900767552,2.1369907529648673,0.5198741610225439,-2.5828006290607886,-0.6962955618956672,-0.0628892548977381,-0.1561294074275421,1,2,5,1.7367410922989959,3.104075478957049,4.750601031898652,42156,,1.0,Data,Data,True
0.5550781168143618,30.764685091953492,31.92686979004914,1.0034638953055248,-0.8275620162313051,1.6841814068404943,-0.08283603358929806,-0.2695394597174533,0.10364201413032574,1,1,5,1.840520050976699,2.5393147571279227,0.7057976996219835,30295,,1.0,Data,Data,True
3.743421832638684,106.58297913468442,40.52003134931858,-2.6260361718262604,-1.7774006979626045,-2.212824613880274,-0.7973487563387976,-1.4351475605277086,1.7428708248902722,1,1,3,1.0615881885762466,3.207708659558687,2.573608228242935,152869,,1.0,Data,Data,True
8.003982573976547,11.25712487775426,70.92123862246899,0.8907009979122851,2.550256948027851,-0.9726139760016705,0.6170271066518679,-0.872053988458072,-0.612315479564597,3,2,4,2.2296834886094925,3.5324331048690536,2.2323140205395275,10833,0.0,-0.6367266230258315,Sample_C,Background,True
15.523880633715448,14.146963159906996,13.62437188958,2.2441244737585038,1.9742332895967776,1.910106495471541,3.1149254610684878,-1.1844021214727904,0.9116534244895298,1,3,4,4.307790490876784,2.0970362651809773,2.228446920388659,95576,0.0,2.9054491100804323,Sample_C,Background,True
10.396716258571892,9.431128901912972,87.97190872652587,-0.7395833150182449,1.1989319878726228,0.9239492789425672,0.45116562934485543,1.3086303336968679,-0.31878234757577284,1,1,4,2.1196903780391034,1.6504809981873518,1.8330740787906408,264536,,1.0,Data,Data,True
51.05567487388901,95.98411164041067,217.29915335544266,1.762392700475921,-1.169552815694368,-0.4079328142971117,0.48203391938750184,-0.8248996357033764,-0.11900604526503597,1,3,4,3.210043586497471,1.0384367036802427,2.252012850581531,97525,0.0,0.17315460569816327,Sample_B,Background,True
2.0303925898110706,103.7269164992546,37.16032301251031,0.046299735570768163,-1.69312171455136,-1.2900957137535636,1.1244258931693125,1.0139305403373373,2.195229845429683,2,1,5,1.7429274810336859,1.2481578447979742,1.712475956371713,874,0.0,0.5336680054633807,Sample_B,Background,True
9.240564042033457,31.3662174082134,57.637911495446154,-1.7206849088156526,-2.73744063268123,-0.805258805882473,-0.47362120028278276,1.5506242819806673,0.575858242391556,2,1,4,2.265250973838749,2.1641384992064676,1.3926277501642244,242163,,1.0,Data,Data,True
10.106727526655948,6.493358155066628,50.122704367192604,2.155950931295669,-2.5099077109110275,-1.3683540460025239,-1.1494548988106659,1.1630784161122412,-0.9379331911057983,1,1,5,5.207499131222515,2.3911073885400813,3.5306468254187076,46159,1.0,0.14647301273616986,Sample_A,Signal,True
5.475568494746004,22.917698378007792,47.48817810097884,2.0961480239201986,-2.311386052870089,-1.2696333717337354,-1.3514432901891673,1.9976676744068167,-0.45403372172078305,1,1,5,5.535603028690249,2.663848416188279,3.4833645139302827,61155,1.0,0.12545540467738017,Sample_A,Signal,True
18.55815536898586,52.28910958276468,20.8921157047434,-1.2491188363949715,2.2573973960314833,-2.931194485125273,1.1141635417585614,-2.2975841580301344,-1.041987954717038,1,2,5,4.892410290979659,5.3383525113072166,2.7346604476251586,126594,,1.0,Data,Data,True
29.2180226515138,251.86675415044192,33.01751996461037,2.409391249315478,-0.8602867322264944,2.890233652166554,-0.770132631822371,-0.9414231701774476,-1.501877684983778,1,2,4,3.2741616562885767,3.792164608362166,0.8755913654244124,249243,,1.0,Data,Data,True
21.727733860044115,27.29518785636841,73.01511560465266,-1.380658174152931,-2.632732290927753,-0.2883096582154363,-1.43527657441411,-1.794001834979762,-3.18362231460621,1,1,2,1.302449003402953,2.725318799364762,2.0615378016225434,256085,,1.0,Data,Data,True
23.21723674430634,12.578518517660443,392.8106930168093,-1.5558299134616242,0.3606964204158922,2.032916393768293,0.4800650526405208,-0.3894866183155248,1.4773307975863377,1,1,4,2.104564871157087,2.5062575493339088,3.72473341646066,25814,1.0,1.5151260619913942,Sample_A,Signal,True
14.968960103161297,15.654997773285384,15.949285467096587,-1.6267730944830816,0.3790167726203211,-1.9365153809695286,-1.3800296914424457,-2.510326069880019,0.06364082681254901,1,1,5,2.3023385706893285,3.4622239586106525,1.4765245847314892,141340,,1.0,Data,Data,True
5.916939693309148,93.90273805665153,18.455080142079982,0.2515084054407435,-2.536231620296954,0.8654563212145172,-2.288418826818783,0.6542277335680419,-0.39240025588040983,1,2,5,4.0534754508269115,3.55906040967577,1.9929421628903712,53178,0.0,3.5460039519136015,Sample_B,Background,True
7.717534264185528,27.94146920981822,190.78460708951994,1.565130375107315,2.8208192112731068,2.872853807465611,-1.8477930796495838,1.186066047426726,-0.45650574601187255,1,1,4,3.2834517898418474,1.6433957818495857,1.9094033152479064,48640,1.0,-0.9833878810959055,Sample_A,Signal,True
3.3785853241615826,24.221774567086012,73.13846923404543,0.161787979916872,-0.2542891153485005,1.2089539315698605,2.343057009229751,-2.1700234923204205,-2.4564032103376503,3,1,4,4.532219739010546,1.4910042110089954,4.912369583969765,79636,0.0,-1.2536232659520987,Sample_B,Background,True
15.26664165708449,15.050392929079266,38.5348759106154,0.48582689818724,-2.0291528140559443,0.14759178891307334,0.0877320894344042,-1.1565727287851602,-2.1212938072283456,1,3,4,2.805961053478689,2.3809459938745627,2.2347703240539896,107008,,1.0,Data,Data,True
3.4586058115600227,18.864551452912313,62.62359569773765,2.3905449450303955,1.8045189916874937,-2.363750180140482,2.317617834532346,-2.400758211437421,0.03197879694065123,1,2,4,4.7546292104824275,4.826248775264675,5.2751746840637095,206207,,1.0,Data,Data,True
7.999277095815799,133.9162702195645,23.733191448656438,1.602296624108531,-0.029063269585849927,1.397423336875062,0.9561526355370188,-2.8167630892321,-0.5462502445972446,1,1,4,4.110502179656961,2.6814348054846,1.5163071845960425,100430,,1.0,Data,Data,True
